<?xml version="1.0" encoding="UTF-8" standalone="no"?>
<!DOCTYPE svg PUBLIC "-//W3C//DTD SVG 1.1//EN" "http://www.w3.org/Graphics/SVG/1.1/DTD/svg11.dtd">
<svg width="100%" height="100%" viewBox="0 0 290 290" version="1.1" xmlns="http://www.w3.org/2000/svg" xmlns:xlink="http://www.w3.org/1999/xlink" xml:space="preserve" xmlns:serif="http://www.serif.com/" style="fill-rule:evenodd;clip-rule:evenodd;stroke-linejoin:round;stroke-miterlimit:1.41421;">
    <g transform="matrix(1,0,0,1,-875.794,-1237.11)">
        <g id="Artboard1" transform="matrix(1,0,0,1,-17.7894,-46.1358)">
            <rect x="893.584" y="1283.25" width="289.989" height="289.989" style="fill:none;"/>
            <g transform="matrix(-0.646812,2.28017,2.28017,0.646812,1140.23,1491.32)">
                <path d="M-68.248,-61.752L49.557,-61.752L46.672,-51.581L-71.133,-51.581L-68.248,-61.752Z" style="fill:rgb(178,178,178);fill-rule:nonzero;"/>
            </g>
            <g transform="matrix(-2.37014,0,0,2.37014,1106.85,1205.37)">
                <rect x="51.024" y="65.828" width="9.411" height="62.362" style="fill:rgb(0,173,216);"/>
            </g>
            <g transform="matrix(2.37014,0,0,2.37014,468.154,1194.92)">
                <g opacity="0.800003">
                    <g transform="matrix(1,0,0,1,267.916,125.608)">
                        <path d="M0,-48.384L-4.496,-40.892C-5.872,-43.279 -7.182,-44.837 -8.428,-45.563C-9.726,-46.393 -11.4,-46.809 -13.449,-46.809C-15.967,-46.809 -18.057,-46.095 -19.717,-44.668C-21.378,-43.267 -22.208,-41.501 -22.208,-39.374C-22.208,-36.441 -20.029,-34.08 -15.668,-32.289L-9.674,-29.836C-4.795,-27.864 -1.227,-25.457 1.032,-22.615C3.289,-19.773 4.418,-16.29 4.418,-12.163C4.418,-6.636 2.575,-2.068 -1.11,1.54C-4.821,5.173 -9.428,6.989 -14.929,6.989C-20.145,6.989 -24.122,5.036 -27.853,2.357C-32.656,-1.094 -33.164,-1.916 -35.114,-4.187L-29.927,-12.256C-28.836,-10.116 -26.843,-7.305 -22.754,-4.4C-20.941,-3.156 -18.16,-1.497 -14.579,-1.497C-11.75,-1.497 -9.401,-2.444 -7.533,-4.339C-5.665,-6.233 -4.73,-8.633 -4.73,-11.541C-4.73,-12.709 -4.892,-13.779 -5.217,-14.752C-5.541,-15.725 -6.047,-16.62 -6.735,-17.438C-7.422,-18.255 -8.311,-19.02 -9.401,-19.735C-10.491,-20.448 -11.789,-21.13 -13.294,-21.779L-19.094,-24.192C-27.321,-27.67 -31.434,-32.756 -31.434,-39.452C-31.434,-43.968 -29.709,-47.743 -26.257,-50.78C-22.806,-53.841 -18.51,-55.373 -13.372,-55.373C-8.016,-55.373 -4.17,-53.598 0,-48.384" style="fill:rgb(32,39,33);fill-rule:nonzero;"/>
                    </g>
                </g>
            </g>
        </g>
    </g>
</svg>
